SaviR Version 0.2 API Changes • SaviR
…
get_vax(), get_vax_manufacturers()

iso_code -> id

location -> owid_country

Still not ideal, but it should be apparent where that column comes
from

URL for get_vax_manufacturers() changed

onetable
#> # A tibble: 237 × 10
#>    id    iso2code state_region            who_region who_region_desc who_country
#>    <chr> <chr>    <chr>                   <chr>      <chr>           <chr>      
#>  1 ABW   AW       NA                      AMRO       Americas        Aruba      
#>  2 AFG   AF       South and Central Asia  EMRO       Eastern Medite… Afghanistan
#>  3 AGO   AO       Sub-Saharan Africa      AFRO       Africa          Angola     
#>  4 AIA   AI       NA                      AMRO       Americas        Anguilla   
#>  5 ALB   AL       Europe and Eurasia      EURO       Europe          Albania    
#>  6 AND   AD       Europe and Eurasia      EURO       Europe          Andorra    
#>  7 ARE   AE       Near East (Middle East… EMRO       Eastern Medite… United Ara…
#>  8 ARG   AR       Western Hemisphere      AMRO       Americas        Argentina  
#>  9 ARM   AM       Europe and Eurasia      EURO       Europe          Armenia    
#> 10 ASM   AS       NA                      WPRO       Western Pacific American S…
#> # ℹ 227 more rows
#> # ℹ 4 more variables: incomelevel_value <chr>, population <dbl>,
#> #   eighteenplus <dbl>, geometry <MULTIPOLYGON [m]>
…
