Dynamic data source selection for testing data • SaviR
…
get_testing() uses the SaviR functions
get_testing_long() and
get_preferred_testpos7() under the hood. This means that
the preferred source is selected based on flags applied to test numbers
and test positivity.

In addition, you can pull data in from both sources directly:

testing_long <- get_testing_long()
testing_long

## # A tibble: 420,009 × 38
##    data_source id    date       population total_tests_original
##    <chr>       <chr> <date>          <dbl>                <dbl>
##  1 FIND        AFG   2020-01-22   38928000                   NA
##  2 FIND        AFG   2020-01-23   38928000                   NA
##  3 FIND        AFG   2020-01-24   38928000                   NA
##  4 FIND        AFG   2020-01-25   38928000                   NA
##  5 FIND        AFG   2020-01-26   38928000                   NA
##  6 FIND        AFG   2020-01-27   38928000                   NA
##  7 FIND        AFG   2020-01-28   38928000                   NA
##  8 FIND        AFG   2020-01-29   38928000                   NA
##  9 FIND        AFG   2020-01-30   38928000                   NA
## 10 FIND        AFG   2020-01-31   38928000                   NA
## # ℹ 419,999 more rows
## # ℹ 33 more variables: new_tests_original <dbl>, total_tests_int <dbl>,
## #   new_tests_int <dbl>, new_tests_daily7 <dbl>, new_tests_daily7_prev <dbl>,
## #   new_tests_daily7_per_1k <dbl>, new_tests_daily7_per_1k_prev <dbl>,
## #   new_tests_daily14 <dbl>, new_tests_daily14_prev <dbl>,
## #   new_tests_daily14_per_1k <dbl>, new_tests_daily14_per_1k_prev <dbl>,
## #   new_cases_original <dbl>, new_cases_daily7 <dbl>, …

To get the preferred data source for each country by date directly,
using both test numbers and test positivity lagged seven days from the
observation date:

preferred_source <- get_preferred_testpos7(testing_long)
preferred_source

## # A tibble: 199 × 58
##    id    preferred_source preferred_recent_date positive_rate positive_rate_prev
##    <chr> <chr>            <date>                        <dbl>              <dbl>
##  1 AFG   NA               NA                               NA                 NA
##  2 AGO   NA               NA                               NA                 NA
##  3 AIA   NA               NA                               NA                 NA
##  4 ALB   NA               NA                               NA                 NA
##  5 AND   NA               NA                               NA                 NA
##  6 ARE   NA               NA                               NA                 NA
##  7 ARG   NA               NA                               NA                 NA
##  8 ARM   NA               NA                               NA                 NA
##  9 ATG   NA               NA                               NA                 NA
## 10 AUS   NA               NA                               NA                 NA
## # ℹ 189 more rows
## # ℹ 53 more variables: new_tests_daily7 <dbl>, new_tests_daily7_prev <dbl>,
## #   new_tests_daily7_1k <dbl>, new_tests_daily7_1k_prev <dbl>,
## #   flag_negative_tests_previous7 <dbl>, flag_increase_tests_previous7 <dbl>,
## #   flag_negative_cases_previous7 <dbl>, owid_date <date>,
## #   owid_new_cases <dbl>, owid_new_cases_daily7 <dbl>,
## #   owid_total_tests_orig <dbl>, owid_total_tests_int <dbl>, …
…
And with other sequence of functions:

preferred_source <- 
  get_preferred_testpos7(
    testing_long %>%
    filter(data_source == "FIND" | (data_source == "OWID" & date <= "2022-06-01"))
  )
preferred_source

## # A tibble: 199 × 58
##    id    preferred_source preferred_recent_date positive_rate positive_rate_prev
##    <chr> <chr>            <date>                        <dbl>              <dbl>
##  1 AFG   NA               NA                               NA                 NA
##  2 AGO   NA               NA                               NA                 NA
##  3 AIA   NA               NA                               NA                 NA
##  4 ALB   NA               NA                               NA                 NA
##  5 AND   NA               NA                               NA                 NA
##  6 ARE   NA               NA                               NA                 NA
##  7 ARG   NA               NA                               NA                 NA
##  8 ARM   NA               NA                               NA                 NA
##  9 ATG   NA               NA                               NA                 NA
## 10 AUS   NA               NA                               NA                 NA
## # ℹ 189 more rows
## # ℹ 53 more variables: new_tests_daily7 <dbl>, new_tests_daily7_prev <dbl>,
## #   new_tests_daily7_1k <dbl>, new_tests_daily7_1k_prev <dbl>,
## #   flag_negative_tests_previous7 <dbl>, flag_increase_tests_previous7 <dbl>,
## #   flag_negative_cases_previous7 <dbl>, owid_date <date>,
## #   owid_new_cases <dbl>, owid_new_cases_daily7 <dbl>,
## #   owid_total_tests_orig <dbl>, owid_total_tests_int <dbl>, …

Or just using test numbers over the past 14 days:

get_preferred_tests14(
  testing_long %>%
    filter(data_source == "FIND" | (data_source == "OWID" & date <= "2022-06-01"))
)

## # A tibble: 195 × 39
##    id    preferred_source preferred_recent_date new_tests_daily14
##    <chr> <chr>            <date>                            <dbl>
##  1 AFG   NA               NA                                   NA
##  2 AGO   NA               NA                                   NA
##  3 ALB   NA               NA                                   NA
##  4 AND   NA               NA                                   NA
##  5 ARE   NA               NA                                   NA
##  6 ARG   NA               NA                                   NA
##  7 ARM   NA               NA                                   NA
##  8 ATG   NA               NA                                   NA
##  9 AUS   NA               NA                                   NA
## 10 AUT   NA               NA                                   NA
## # ℹ 185 more rows
## # ℹ 35 more variables: new_tests_daily14_prev <dbl>,
## #   new_tests_daily14_1k <dbl>, new_tests_daily14_1k_prev <dbl>,
## #   flag_negative_tests_previous14 <dbl>, flag_increase_tests_previous14 <dbl>,
## #   owid_date <date>, owid_total_tests_orig <dbl>, owid_total_tests_int <dbl>,
## #   owid_new_tests_orig <dbl>, owid_new_tests_int <dbl>,
## #   owid_tests_daily14 <dbl>, owid_tests_daily14_prev <dbl>, …
…
